{
    "sujet": {
        "title": "📄 Rappel du sujet",
        "type": "page",
        "theme": {
            "layout": "full"
        }
    },


    "index": "Introduction",
    "-": {
        "type": "separator"
    },
    "apis": {
        "title": "APIs",
        "theme": {
            "breadcrumb": false,
            "footer": false,
            "toc": false
        }
    },
    "--": {
        "type": "separator"
    },
    "architecture_schema": "Schéma d’architecture",
    "api_security": "Sécurité de l’API",
    "language": "Langage de programmation",
    "hosting_rules": "Règles d’hébergement",
    "source_code_management": "Gestion du code source",
    "deployment_management": "Gestion du déploiement",
    "---": {
        "type": "separator"
    },
    "change_management": "Accompagnement au changement"
}